id,name,model_id/id,group_id/id,perm_read,perm_write,perm_create,perm_unlink
access_user_dynamic_state_constraint,access_user_dynamic_state_constraint,model_dynamic_state_constraint,base.group_user,1,0,0,0
access_system_dynamic_state_constraint,access_system_dynamic_state_constraint,model_dynamic_state_constraint,base.group_system,1,1,1,1
