id,name,model_id:id,group_id:id,perm_read,perm_write,perm_create,perm_unlink
dnb.access_dnb_data,access_dnb_data,dnb.model_dnb_data,base.group_user,1,0,0,0
dnb.access_dnb_industry,access_dnb_industry,dnb.model_dnb_industry,base.group_user,1,1,1,1
